<?xml version="1.0" encoding="utf-8"?>
<!-- Generator: Adobe Illustrator 21.1.0, SVG Export Plug-In . SVG Version: 6.00 Build 0)  -->
<svg version="1.1" id="Layer_1" xmlns="http://www.w3.org/2000/svg" xmlns:xlink="http://www.w3.org/1999/xlink" x="0px" y="0px"
	 viewBox="0 0 235.8 423.3" style="enable-background:new 0 0 235.8 423.3;" xml:space="preserve">
<style type="text/css">
	.st0{fill-rule:evenodd;clip-rule:evenodd;fill:#FFFFFF;}
	.st1{fill:#C2C2C2;}
	.st2{fill-rule:evenodd;clip-rule:evenodd;fill:#C2C2C2;}
</style>
<g>
	<path class="st0" d="M3.2,423V37.9c0-20.4,16.6-37.1,37.1-37.1h155.2c20.4,0,37.1,16.6,37.1,37.1V423H3.2z"/>
	<g>
		<g>
			<path class="st1" d="M2.4,423V170.3v-29.8v-6.9v-29.8V86.6V69.4V37.9C2.4,17,19.4,0,40.3,0h155.2c20.9,0,37.9,17,37.9,37.9v65.9
				v29.8V423H2.4z M231.7,423V37.9c0-20-16.2-36.2-36.2-36.2H40.3c-20,0-36.2,16.2-36.2,36.2V423H231.7z"/>
			<path class="st2" d="M1,140.5c-0.6,0-1,0.5-1,1v27.7c0,0.6,0.5,1,1,1h1.6v-29.8H1z"/>
			<path class="st2" d="M1,103.8c-0.6,0-1,0.5-1,1v27.7c0,0.6,0.5,1,1,1h1.6v-29.8H1z"/>
			<path class="st2" d="M1,69.4c-0.6,0-1,0.5-1,1v15.1c0,0.6,0.5,1,1,1h1.6V69.4H1z"/>
			<path class="st2" d="M234.7,103.8h-1.6v29.8h1.6c0.6,0,1-0.5,1-1v-27.7C235.8,104.3,235.3,103.8,234.7,103.8z"/>
			<path class="st2" d="M135.5,25.4h-35.3c-1,0-1.9,0.8-1.9,1.9v0.4c0,1,0.8,1.9,1.9,1.9h35.3c1,0,1.9-0.8,1.9-1.9v-0.4
				C137.4,26.2,136.6,25.4,135.5,25.4z"/>
			<circle class="st2" cx="80.1" cy="27.5" r="4.1"/>
			<circle class="st2" cx="117.9" cy="9.9" r="2.7"/>
		</g>
		<path class="st1" d="M220.5,423.5H16.2c-1.4,0-2.5-1.1-2.5-2.5V54.1c0-1.4,1.1-2.5,2.5-2.5h204.3c1.4,0,2.5,1.1,2.5,2.5V421
			C223,422.4,221.9,423.5,220.5,423.5z M16.2,52.2c-1.1,0-1.9,0.9-1.9,1.9V421c0,1.1,0.9,1.9,1.9,1.9h204.3c1.1,0,1.9-0.9,1.9-1.9
			V54.1c0-1.1-0.9-1.9-1.9-1.9H16.2z"/>
	</g>
</g>
</svg>
