<?xml version="1.0" encoding="utf-8"?>
<svg xmlns="http://www.w3.org/2000/svg" viewBox="0 0 59.1 25">
  <style>
  </style>
  <g id="Layer_1">
    <path d="M5.3 24.9l-3.7-4v4H0V11h1.6v9.3l3.6-4.1h2l-3.9 4.4 4.1 4.3H5.3zM8.7 11h1.6v13.9H8.7V11zM20.7 21.2H14c.3 1.4 1.3 2.2 2.8 2.2 1.1 0 2-.4 2.9-.9v1.6c-.7.5-1.8.9-3 .9-2.8 0-4.4-2-4.4-4.5 0-2.4 1.7-4.5 4.3-4.5 2.7.1 4.2 2.4 4.1 5.2zM14 19.8h4.9c-.2-1.3-1.1-2.1-2.4-2.1-1.3 0-2.2.9-2.5 2.1zM29.6 16.2l-3.8 8.7h-1L21 16.2h1.8l2.6 6.3 2.6-6.3h1.6zM30.8 13.4c0-.6.5-1.1 1.1-1.1.6 0 1.1.5 1.1 1.1 0 .6-.5 1.1-1.1 1.1-.7.1-1.1-.4-1.1-1.1zm.2 2.8h1.6v8.7H31v-8.7zM34.6 20.5c0-2.4 1.8-4.5 4.4-4.5s4.4 2.1 4.4 4.5S41.6 25 39 25s-4.4-2.1-4.4-4.5zm7.2 0c0-1.5-1.1-2.8-2.7-2.8s-2.8 1.3-2.8 2.8c0 1.5 1.1 2.9 2.8 2.9 1.6 0 2.7-1.3 2.7-2.9z"/>
    <linearGradient id="SVGID_2_" gradientUnits="userSpaceOnUse" x1="44.6632" y1="14.4584" x2="59.2126" y2="-.09095583">
      <stop offset="0" stop-color="#cb79fc"/>
      <stop offset=".2169" stop-color="#9195fd" stop-opacity=".9147"/>
      <stop offset=".5088" stop-color="#47b8ff" stop-opacity=".8"/>
      <stop offset=".9353" stop-color="#0ae3c6" stop-opacity=".9737"/>
      <stop offset="1" stop-color="#00eabd"/>
    </linearGradient>
    <path d="M45.9 0h-1.2v14.4h14.4V0H45.9zm11.7 12.8H46.3V1.6h.2c5.8.8 10.3 5.3 11.1 11.1v.1zM51.4 1.6h6.2v6.2c-1.4-2.7-3.6-4.9-6.2-6.2z" fill="url(#SVGID_2_)"/>
  </g>
</svg>