<?xml version="1.0" encoding="utf-8"?>
<!-- Generator: Adobe Illustrator 21.1.0, SVG Export Plug-In . SVG Version: 6.00 Build 0)  -->
<svg version="1.1" xmlns="http://www.w3.org/2000/svg" xmlns:xlink="http://www.w3.org/1999/xlink" x="0px" y="0px"
	 viewBox="0 0 50 50" style="enable-background:new 0 0 50 50;" xml:space="preserve">
<style type="text/css">
	.st0{fill:#F9F9F9;}
	.st1{fill:none;}
	.st2{display:none;}
	.st3{display:inline;}
	.st4{fill:#27AAE1;}
	.st5{fill:#808285;}
	.st6{display:inline;fill:none;stroke:#27AAE1;stroke-miterlimit:10;stroke-dasharray:1.0754,1.0754;}
	.st7{display:inline;fill:#FFCB05;}
	.st8{display:inline;fill:#3E1300;}
	.st9{fill:#FFFFFF;}
	.st10{fill:#FFCB05;}
	.st11{display:inline;fill:none;stroke:#27AAE1;stroke-miterlimit:10;}
	.st12{fill:#CCEAF2;stroke:#FFFFFF;stroke-miterlimit:10;}
	.st13{fill:none;stroke:#27AAE1;stroke-width:1.155;stroke-miterlimit:10;stroke-dasharray:2.31,2.31;}
	.st14{fill:none;stroke:#27AAE1;stroke-miterlimit:10;stroke-dasharray:2,2;}
	.st15{fill:none;stroke:#27AAE1;stroke-miterlimit:10;stroke-dasharray:2.0006,2.0006;}
	.st16{opacity:0.2;}
	.st17{fill:#D1D3D4;}
	.st18{fill:#38393F;}
	.st19{fill:#F1F2F2;}
	.st20{fill:#231F20;}
	.st21{opacity:5.000000e-02;}
	.st22{fill:#B855FF;}
	.st23{fill:#38393E;}
	.st24{fill:#AFB0B2;}
	.st25{fill:#6AA7FE;}
	.st26{fill:#6699FF;}
	.st27{fill:#578FFF;}
	.st28{fill:#FFFFFF;stroke:#D1D3D4;stroke-width:0.5;stroke-miterlimit:10;}
	.st29{fill:#939598;}
	.st30{opacity:0.2;fill:#38393F;}
	.st31{opacity:0.8;}
	.st32{fill:none;stroke:#231F20;stroke-miterlimit:10;}
	.st33{fill:#00EABD;}
	.st34{fill:#7900F9;}
	.st35{fill:#0062FF;}
	.st36{fill:none;stroke:#38393F;stroke-miterlimit:10;}
	.st37{opacity:0.4;}
	.st38{opacity:0.5;}
	.st39{fill:url(#SVGID_13_);}
	.st40{fill:url(#SVGID_14_);}
	.st41{fill:url(#SVGID_15_);}
	.st42{fill:#F7F7F7;}
	.st43{fill:url(#SVGID_20_);}
	.st44{fill:url(#SVGID_21_);}
	.st45{fill:#E6E7E8;}
	.st46{fill:none;stroke:#38393F;stroke-width:0.3848;stroke-miterlimit:10;}
	.st47{fill:#00FFCC;}
	.st48{fill:none;stroke:#38393F;stroke-width:0.481;stroke-miterlimit:10;stroke-dasharray:0.9619,0.9619;}
	.st49{clip-path:url(#SVGID_23_);}
	.st50{fill:none;stroke:#AFB0B2;stroke-width:0.6591;stroke-miterlimit:10;}
	.st51{fill:#AFB0B2;stroke:#AFB0B2;stroke-width:0.6591;stroke-miterlimit:10;}
	.st52{fill:none;stroke:#231F20;stroke-width:0.5;stroke-miterlimit:10;}
	.st53{opacity:0.7;fill:#D1D3D4;}
	.st54{clip-path:url(#SVGID_25_);}
	.st55{clip-path:url(#SVGID_27_);}
	.st56{clip-path:url(#SVGID_29_);}
	.st57{fill:none;stroke:#FFFFFF;stroke-width:2.4261;stroke-miterlimit:10;}
	.st58{clip-path:url(#SVGID_31_);}
	.st59{clip-path:url(#SVGID_33_);fill:#38393F;}
	.st60{clip-path:url(#SVGID_37_);}
	.st61{fill-rule:evenodd;clip-rule:evenodd;fill:#FFFFFF;}
	.st62{fill:#C2C2C2;}
	.st63{fill-rule:evenodd;clip-rule:evenodd;fill:#C2C2C2;}
	.st64{fill:none;stroke:#C2C2C2;stroke-width:0.707;stroke-miterlimit:10;}
	.st65{fill:#FFFFFF;fill-opacity:0.9;}
	.st66{opacity:0.5;fill:#231F20;}
	.st67{fill:#A6A6A6;}
	.st68{fill:#FFFFFF;stroke:#FFFFFF;stroke-width:0.2;stroke-miterlimit:10;}
	.st69{fill:url(#SVGID_40_);}
	.st70{fill:url(#SVGID_41_);}
	.st71{fill:url(#SVGID_42_);}
	.st72{fill:url(#SVGID_43_);}
	.st73{opacity:0.2;enable-background:new    ;}
	.st74{opacity:0.12;enable-background:new    ;}
	.st75{opacity:0.25;fill:#FFFFFF;enable-background:new    ;}
	.st76{fill:url(#SVGID_44_);}
	.st77{fill:url(#SVGID_45_);}
	.st78{fill:url(#SVGID_46_);}
	.st79{fill:url(#SVGID_47_);}
	.st80{fill:#B6B6B6;}
	.st81{fill:none;stroke:#231F20;stroke-width:0.6124;stroke-miterlimit:10;}
	.st82{fill:none;stroke:#231F20;stroke-width:0.2527;stroke-miterlimit:10;}
	.st83{fill:none;stroke:#231F20;stroke-width:0.692;stroke-miterlimit:10;}
	.st84{fill:none;stroke:#231F20;stroke-width:0.1195;stroke-miterlimit:10;}
	.st85{fill:none;stroke:#231F20;stroke-width:0.2635;stroke-miterlimit:10;}
	.st86{fill:none;stroke:#231F20;stroke-width:0.614;stroke-miterlimit:10;}
	.st87{fill:none;stroke:#FFFFFF;stroke-width:0.559;stroke-miterlimit:10;}
	.st88{fill:none;stroke:#FFFFFF;stroke-width:0.433;stroke-miterlimit:10;}
	.st89{fill:none;stroke:#FFFFFF;stroke-width:0.3566;stroke-miterlimit:10;}
	.st90{fill:none;stroke:#FFFFFF;stroke-width:0.6124;stroke-miterlimit:10;}
	.st91{fill:none;stroke:#231F20;stroke-width:0.433;stroke-miterlimit:10;}
	.st92{fill:none;stroke:#231F20;stroke-width:1.118;stroke-miterlimit:10;}
	.st93{fill:none;stroke:#231F20;stroke-width:0.559;stroke-miterlimit:10;}
	.st94{fill:none;stroke:#231F20;stroke-width:0.6646;stroke-miterlimit:10;}
	.st95{fill:none;stroke:#231F20;stroke-width:0.4987;stroke-miterlimit:10;}
	.st96{fill:none;stroke:#231F20;stroke-width:0.498;stroke-miterlimit:10;}
	.st97{fill:none;stroke:#231F20;stroke-width:0.25;stroke-miterlimit:10;}
	.st98{fill:none;stroke:#231F20;stroke-width:0.2795;stroke-miterlimit:10;}
</style>
<g id="COLUMNS">
</g>
<g id="WIRE_FRAME_INFO" class="st2">
</g>
<g id="PAGE_INFO">
</g>
<g id="GUIDES" class="st2">
</g>
<g id="ELEMENTS">
</g>
<g id="SCREEN_GUIDE">
</g>
<g id="Layer_1">
	<g>
		<path class="st18" d="M25,7.6C15.4,7.6,7.6,15.4,7.6,25S15.4,42.4,25,42.4c9.6,0,17.4-7.8,17.4-17.4S34.6,7.6,25,7.6z M25,39.7
			c-8.1,0-14.7-6.6-14.7-14.7S16.9,10.3,25,10.3S39.7,16.9,39.7,25S33.1,39.7,25,39.7z"/>
		<polygon class="st18" points="25.9,25.4 25.9,16.1 23.2,16.1 23.2,26.8 32.5,32.5 33.9,30.2 		"/>
	</g>
</g>
<g id="Layer_8">
</g>
<g id="wireframe">
</g>
</svg>
