<svg xmlns="http://www.w3.org/2000/svg" width="80" height="80" viewBox="5 -25 80 80">
    <g fill="#fff">
        <path class="st0" d="M54.4,2.2c-0.9,0-1.8,0.3-2.4,1c-1.3,1.3-1.3,3.5,0,4.8c0.6,0.6,1.5,1,2.4,1c0.9,0,1.8-0.4,2.4-1c1.3-1.3,1.3-3.5,0-4.8C56.1,2.6,55.3,2.2,54.4,2.2z M55.2,6.4c-0.2,0.2-0.5,0.3-0.8,0.3s-0.6-0.1-0.8-0.3c-0.4-0.4-0.4-1.1,0-1.6c0.2-0.2,0.5-0.3,0.8-0.3s0.6,0.1,0.8,0.3C55.6,5.3,55.6,6,55.2,6.4z"/>
        <path class="st0" d="M62.4-1.7l-0.1-0.5l-0.5-0.1c-1.7-0.6-3.4-1-5.3-1c-3.8,0-7.4,1.5-10.1,4.1l-3.4,3.4l-8.5,1l-6.3,6.3l5.4,2.1l-1.2,1.2l1.7,1.7l-2.7,3.8l8.3,8.3l3.8-2.7l1.7,1.7l1.2-1.2l2.1,5.4l6.3-6.3l1-8.5l3.4-3.4C63.2,9.6,64.4,3.6,62.4-1.7z M32.1,10.7l3.4-3.4l4.9-0.6L35.2,12L32.1,10.7z M39.8,25.7l-5.6-5.6l1.3-1.9l6.1,6.1L39.8,25.7z M52.6,24.5l-3.4,3.4L48,24.8l5.1-5.1L52.6,24.5z M57.5,12.1L45.1,24.5l-4-4l8.8-8.8l-1.6-1.6l-8.8,8.8l-4-4L47.9,2.4c2.3-2.3,5.3-3.5,8.5-3.5c1.4,0,2.7,0.2,4,0.6C61.9,4,60.8,8.8,57.5,12.1z"/>
        <rect x="30" y="26.6" transform="matrix(-0.7074 0.7068 -0.7068 -0.7074 74.6469 24.5717)" class="st0" width="4.5" height="2.3"/>
        <rect x="33.2" y="29.9" transform="matrix(-0.7072 0.707 -0.707 -0.7072 82.5083 27.8818)" class="st0" width="4.5" height="2.3"/>
        <rect x="26.8" y="23.4" transform="matrix(-0.7074 0.7068 -0.7068 -0.7074 66.9586 21.2924)" class="st0" width="4.5" height="2.3"/>
    </g>
</svg>