<?xml version="1.0" encoding="utf-8"?>
<!-- Generator: Adobe Illustrator 19.0.0, SVG Export Plug-In . SVG Version: 6.00 Build 0)  -->
<svg version="1.1" id="Layer_1" xmlns="http://www.w3.org/2000/svg" xmlns:xlink="http://www.w3.org/1999/xlink" x="0px" y="0px"
	 viewBox="0 0 30 50.9" style="enable-background:new 0 0 30 50.9;" xml:space="preserve">
<g>
	<path d="M15.2,19.6c-4,0-7.2-3.2-7.2-7.2s3.2-7.2,7.2-7.2s7.2,3.2,7.2,7.2S19.1,19.6,15.2,19.6z M15.2,7.3c-2.9,0-5.2,2.3-5.2,5.2
		c0,2.9,2.3,5.2,5.2,5.2s5.2-2.3,5.2-5.2C20.4,9.6,18,7.3,15.2,7.3z"/>
	<path d="M27.5,14c0.1-0.5,0.1-1,0.1-1.5C27.6,5.6,22.1,0,15.2,0C8.3,0,2.7,5.6,2.7,12.5c0,0.5,0,1,0.1,1.5C0.5,14.2,0,15.2,0,16.1
		v31.1c0,1.6,2.2,3.8,3.8,3.8h22.7c1.6,0,3.5-2.3,3.5-3.8V16.1C30,14.9,29.2,14.2,27.5,14z M15.2,2C21,2,25.6,6.7,25.6,12.5
		c0,1-0.1,1.9-0.4,2.7c-0.8,3-2.9,5.3-5.5,6.7c-0.1,0.1-0.2,0.1-0.4,0.2c-0.1,0-0.2,0.1-0.3,0.1c-0.2,0.1-0.5,0.2-0.7,0.3
		c0,0-0.1,0-0.1,0c-1,0.3-2,0.5-3,0.5c-1.1,0-2.1-0.2-3-0.5c0,0-0.1,0-0.1,0c-0.2-0.1-0.5-0.2-0.7-0.3c-0.1,0-0.2-0.1-0.3-0.1
		c-0.1-0.1-0.3-0.1-0.4-0.2c-2.6-1.3-4.7-3.7-5.5-6.6c-0.3-0.9-0.4-1.8-0.4-2.8C4.7,6.7,9.4,2,15.2,2z M28,47.1
		c0,0.6-1.1,1.8-1.5,1.8H3.8c-0.5,0-1.8-1.3-1.8-1.8v-31c0.1-0.1,0.4-0.2,1.2-0.2c0,0,0,0.1,0,0.1c0.1,0.2,0.1,0.4,0.2,0.6
		c0.1,0.1,0.1,0.3,0.2,0.4c0.1,0.2,0.2,0.5,0.3,0.7c0,0.1,0.1,0.1,0.1,0.2c1.3,2.7,3.5,4.8,6.3,6c0,0,0,0,0,0c0.1,0,0.2,0.1,0.3,0.1
		c0.3,0.1,0.6,0.2,0.8,0.3c0.1,0,0.1,0,0.2,0c1.2,0.4,2.4,0.6,3.6,0.6c1.2,0,2.5-0.2,3.6-0.6c0.1,0,0.1,0,0.2,0
		c0.3-0.1,0.6-0.2,0.8-0.3c2.9-1.2,5.2-3.4,6.6-6.1c0-0.1,0.1-0.1,0.1-0.2c0.1-0.2,0.2-0.5,0.3-0.7c0-0.1,0.1-0.2,0.1-0.4
		c0.1-0.2,0.2-0.4,0.2-0.6c0,0,0-0.1,0-0.1c0.6,0,0.8,0.2,0.8,0.1V47.1z"/>
</g>
</svg>
